HW3
…
Rows: 214 Columns: 11
── Column specification ────────────────────────────────────────────────────────
Delimiter: ","
dbl (11): ID, RI, Na, Mg, Al, Si, K, Ca, Ba, Fe, Type

ℹ Use `spec()` to retrieve the full column specification for this data.
ℹ Specify the column types or set `show_col_types = FALSE` to quiet this message.

# print tibble 
glass

# A tibble: 214 × 11
      ID    RI    Na    Mg    Al    Si     K    Ca    Ba    Fe  Type
   <dbl> <dbl> <dbl> <dbl> <dbl> <dbl> <dbl> <dbl> <dbl> <dbl> <dbl>
 1     1  1.52  13.6  4.49  1.1   71.8  0.06  8.75     0  0        1
 2     2  1.52  13.9  3.6   1.36  72.7  0.48  7.83     0  0        1
 3     3  1.52  13.5  3.55  1.54  73.0  0.39  7.78     0  0        1
 4     4  1.52  13.2  3.69  1.29  72.6  0.57  8.22     0  0        1
 5     5  1.52  13.3  3.62  1.24  73.1  0.55  8.07     0  0        1
 6     6  1.52  12.8  3.61  1.62  73.0  0.64  8.07     0  0.26     1
 7     7  1.52  13.3  3.6   1.14  73.1  0.58  8.17     0  0        1
 8     8  1.52  13.2  3.61  1.05  73.2  0.57  8.24     0  0        1
 9     9  1.52  14.0  3.58  1.37  72.1  0.56  8.3      0  0        1
10    10  1.52  13    3.6   1.36  73.0  0.57  8.4      0  0.11     1
# ℹ 204 more rows
…
  mutate(Type = case_when(
                        Type == 1 ~ "building_windows_float_processed",
                        Type == 2 ~ "building_windows_non_float_processed",
                        Type == 3 ~ "vehicle_windows_float_processed",
                        Type == 4 ~ "vehicle_windows_non_float_processed
(none in this database)",
                        Type == 5 ~ "containers",
                        Type == 6 ~ "tableware",
                        Type == 7 ~ "headlamps",
 ) 
) |> 
  filter (Fe < 0.2 | Type %in% c("tableware", "headlamp")) |>
  print(n=50)

# A tibble: 189 × 11
      ID    RI    Na    Mg    Al    Si     K    Ca    Ba    Fe Type             
   <dbl> <dbl> <dbl> <dbl> <dbl> <dbl> <dbl> <dbl> <dbl> <dbl> <chr>            
 1     1  1.52  13.6  4.49  1.1   71.8  0.06  8.75  0     0    building_windows…
 2     2  1.52  13.9  3.6   1.36  72.7  0.48  7.83  0     0    building_windows…
 3     3  1.52  13.5  3.55  1.54  73.0  0.39  7.78  0     0    building_windows…
 4     4  1.52  13.2  3.69  1.29  72.6  0.57  8.22  0     0    building_windows…
 5     5  1.52  13.3  3.62  1.24  73.1  0.55  8.07  0     0    building_windows…
 6     7  1.52  13.3  3.6   1.14  73.1  0.58  8.17  0     0    building_windows…
 7     8  1.52  13.2  3.61  1.05  73.2  0.57  8.24  0     0    building_windows…
 8     9  1.52  14.0  3.58  1.37  72.1  0.56  8.3   0     0    building_windows…
 9    10  1.52  13    3.6   1.36  73.0  0.57  8.4   0     0.11 building_windows…
10    12  1.52  12.8  3.66  1.27  73.0  0.6   8.56  0     0    building_windows…
11    14  1.52  12.9  3.56  1.27  73.2  0.54  8.38  0     0.17 building_windows…
12    15  1.52  12.6  3.59  1.31  73.3  0.58  8.5   0     0    building_windows…
13    16  1.52  12.8  3.54  1.23  73.2  0.58  8.39  0     0    building_windows…
14    17  1.52  12.7  3.67  1.16  73.1  0.61  8.7   0     0    building_windows…
15    18  1.52  14.4  3.85  0.89  71.4  0.15  9.15  0     0    building_windows…
16    19  1.52  13.9  3.73  1.18  72.1  0.06  8.89  0     0    building_windows…
17    20  1.52  13.0  3.54  1.69  72.7  0.54  8.44  0     0.07 building_windows…
18    21  1.52  12.8  3.55  1.49  72.8  0.54  8.52  0     0.19 building_windows…
19    22  1.52  14.8  3.75  0.29  72.0  0.03  9     0     0    building_windows…
20    23  1.52  12.8  3.62  1.29  72.8  0.59  8.7   0     0    building_windows…
21    24  1.52  12.8  3.57  1.35  73.0  0.62  8.59  0     0    building_windows…
22    25  1.52  13.4  3.5   1.15  72.8  0.5   8.43  0     0    building_windows…
23    26  1.52  13.0  3.54  1.21  73    0.65  8.53  0     0    building_windows…
24    27  1.52  13.2  3.48  1.41  72.6  0.59  8.43  0     0    building_windows…
25    28  1.52  12.9  3.48  1.33  73.0  0.56  8.43  0     0    building_windows…
26    29  1.52  12.6  3.52  1.43  73.2  0.57  8.54  0     0    building_windows…
27    30  1.52  13.1  3.49  1.28  72.9  0.6   8.49  0     0    building_windows…
28    31  1.52  12.6  3.56  1.3   73.1  0.61  8.69  0     0.14 building_windows…
29    32  1.52  12.8  3.5   1.14  73.3  0.56  8.55  0     0    building_windows…
30    34  1.52  12.6  3.47  1.38  73.4  0.6   8.55  0     0.06 building_windows…
31    35  1.52  12.7  3.54  1.34  73.0  0.57  8.75  0     0    building_windows…
32    36  1.52  13.3  3.45  1.21  72.7  0.56  8.57  0     0    building_windows…
33    37  1.52  13.9  3.53  1.32  71.8  0.51  8.78  0.11  0    building_windows…
34    38  1.52  12.7  3.48  1.35  73.0  0.64  8.68  0     0    building_windows…
35    39  1.52  14.2  3.82  0.47  71.8  0.11  9.57  0     0    building_windows…
36    40  1.52  14.2  3.82  0.47  71.8  0.11  9.57  0     0    building_windows…
37    41  1.52  12.8  3.5   1.12  73.0  0.64  8.77  0     0    building_windows…
38    42  1.52  12.7  3.42  1.2   73.2  0.59  8.64  0     0    building_windows…
39    43  1.52  13.2  3.39  1.33  72.8  0.59  8.59  0     0    building_windows…
40    44  1.52  13.7  3.84  0.72  71.8  0.17  9.74  0     0    building_windows…
41    46  1.52  13.5  3.48  1.35  72.0  0.55  9     0     0    building_windows…
42    47  1.52  13.2  3.37  1.18  72.7  0.57  8.83  0     0.16 building_windows…
43    48  1.53  14.0  3.7   0.71  71.6  0.02  9.82  0     0.1  building_windows…
44    49  1.52  13.2  3.77  0.79  72.0  0.13 10.0   0     0    building_windows…
45    50  1.52  13.6  3.35  1.23  72.1  0.59  8.91  0     0    building_windows…
46    51  1.52  13.7  3.72  0.51  71.8  0.09 10.1   0     0.16 building_windows…
47    52  1.52  13.2  3.33  1.28  72.4  0.6   9.14  0     0.11 building_windows…
48    53  1.52  13.4  2.87  1.19  72.8  0.55  9.03  0     0    building_windows…
49    54  1.52  13.1  2.84  1.28  72.8  0.55  9.07  0     0    building_windows…
50    55  1.52  13.2  2.81  1.29  73.0  0.51  9.02  0     0.09 building_windows…
# ℹ 139 more rows
…
# print tibble 
yeast

# A tibble: 1,484 × 10
   seq_name     mcg   gvh   alm   mit   erl   pox   vac   nuc class
   <chr>      <dbl> <dbl> <dbl> <dbl> <dbl> <dbl> <dbl> <dbl> <chr>
 1 ADT1_YEAST  0.58  0.61  0.47  0.13   0.5   0    0.48  0.22 MIT  
 2 ADT2_YEAST  0.43  0.67  0.48  0.27   0.5   0    0.53  0.22 MIT  
 3 ADT3_YEAST  0.64  0.62  0.49  0.15   0.5   0    0.53  0.22 MIT  
 4 AAR2_YEAST  0.58  0.44  0.57  0.13   0.5   0    0.54  0.22 NUC  
 5 AATM_YEAST  0.42  0.44  0.48  0.54   0.5   0    0.48  0.22 MIT  
 6 AATC_YEAST  0.51  0.4   0.56  0.17   0.5   0.5  0.49  0.22 CYT  
 7 ABC1_YEAST  0.5   0.54  0.48  0.65   0.5   0    0.53  0.22 MIT  
 8 BAF1_YEAST  0.48  0.45  0.59  0.2    0.5   0    0.58  0.34 NUC  
 9 ABF2_YEAST  0.55  0.5   0.66  0.36   0.5   0    0.49  0.22 MIT  
10 ABP1_YEAST  0.4   0.39  0.6   0.15   0.5   0    0.58  0.3  CYT  
# ℹ 1,474 more rows

# overwrite last column and select observations
yeast |>
  select(-c(seq_name, nuc)) |>
  group_by(class) |>
  mutate(across(where(is.numeric), mean, .names = "mean_{.col}")) |>
  print(n=50)

# A tibble: 1,484 × 15
# Groups:   class [10]
     mcg   gvh   alm   mit   erl   pox   vac class mean_mcg mean_gvh mean_alm
   <dbl> <dbl> <dbl> <dbl> <dbl> <dbl> <dbl> <chr>    <dbl>    <dbl>    <dbl>
 1  0.58  0.61  0.47  0.13   0.5   0    0.48 MIT      0.521    0.533    0.517
 2  0.43  0.67  0.48  0.27   0.5   0    0.53 MIT      0.521    0.533    0.517
 3  0.64  0.62  0.49  0.15   0.5   0    0.53 MIT      0.521    0.533    0.517
 4  0.58  0.44  0.57  0.13   0.5   0    0.54 NUC      0.452    0.456    0.529
 5  0.42  0.44  0.48  0.54   0.5   0    0.48 MIT      0.521    0.533    0.517
 6  0.51  0.4   0.56  0.17   0.5   0.5  0.49 CYT      0.481    0.470    0.535
 7  0.5   0.54  0.48  0.65   0.5   0    0.53 MIT      0.521    0.533    0.517
 8  0.48  0.45  0.59  0.2    0.5   0    0.58 NUC      0.452    0.456    0.529
 9  0.55  0.5   0.66  0.36   0.5   0    0.49 MIT      0.521    0.533    0.517
10  0.4   0.39  0.6   0.15   0.5   0    0.58 CYT      0.481    0.470    0.535
11  0.43  0.39  0.54  0.21   0.5   0    0.53 NUC      0.452    0.456    0.529
12  0.42  0.37  0.59  0.2    0.5   0    0.52 NUC      0.452    0.456    0.529
13  0.4   0.42  0.57  0.35   0.5   0    0.53 CYT      0.481    0.470    0.535
14  0.6   0.4   0.52  0.46   0.5   0    0.53 MIT      0.521    0.533    0.517
15  0.66  0.55  0.45  0.19   0.5   0    0.46 MIT      0.521    0.533    0.517
16  0.46  0.44  0.52  0.11   0.5   0    0.5  CYT      0.481    0.470    0.535
17  0.47  0.39  0.5   0.11   0.5   0    0.49 CYT      0.481    0.470    0.535
18  0.58  0.47  0.54  0.11   0.5   0    0.51 NUC      0.452    0.456    0.529
19  0.5   0.34  0.55  0.21   0.5   0    0.49 NUC      0.452    0.456    0.529
20  0.61  0.6   0.55  0.21   0.5   0    0.5  NUC      0.452    0.456    0.529
21  0.45  0.4   0.5   0.16   0.5   0    0.5  CYT      0.481    0.470    0.535
22  0.43  0.44  0.48  0.22   0.5   0    0.51 CYT      0.481    0.470    0.535
23  0.73  0.63  0.42  0.3    0.5   0    0.49 CYT      0.481    0.470    0.535
24  0.43  0.53  0.52  0.13   0.5   0    0.55 CYT      0.481    0.470    0.535
25  0.46  0.53  0.52  0.15   0.5   0    0.58 CYT      0.481    0.470    0.535
26  0.51  0.51  0.52  0.51   0.5   0    0.54 MIT      0.521    0.533    0.517
27  0.59  0.45  0.53  0.19   0.5   0    0.59 CYT      0.481    0.470    0.535
28  0.57  0.47  0.6   0.18   0.5   0    0.51 CYT      0.481    0.470    0.535
29  0.63  0.67  0.57  0.24   0.5   0    0.49 MIT      0.521    0.533    0.517
30  0.8   0.88  0.36  0.39   0.5   0    0.56 ME1      0.789    0.757    0.376
31  0.53  0.54  0.43  0.1    0.5   0    0.57 NUC      0.452    0.456    0.529
32  0.51  0.51  0.43  0.87   0.5   0    0.52 MIT      0.521    0.533    0.517
33  0.38  0.61  0.61  0.12   0.5   0    0.53 CYT      0.481    0.470    0.535
34  0.33  0.55  0.51  0.43   0.5   0    0.51 NUC      0.452    0.456    0.529
35  0.78  0.74  0.42  0.26   0.5   0    0.43 ME1      0.789    0.757    0.376
36  0.74  0.67  0.47  0.34   0.5   0    0.42 EXC      0.735    0.717    0.493
37  0.72  0.61  0.45  0.3    0.5   0    0.54 MIT      0.521    0.533    0.517
38  0.4   0.45  0.57  0.18   0.5   0    0.56 CYT      0.481    0.470    0.535
39  0.59  0.53  0.43  0.44   0.5   0    0.5  MIT      0.521    0.533    0.517
40  0.57  0.53  0.53  0.34   0.5   0    0.53 MIT      0.521    0.533    0.517
41  0.86  0.68  0.39  0.24   0.5   0    0.54 ME2      0.722    0.603    0.415
42  0.86  0.74  0.51  0.4    0.5   0    0.55 ME2      0.722    0.603    0.415
43  0.79  0.57  0.41  0.28   0.5   0    0.59 ME2      0.722    0.603    0.415
44  0.41  0.54  0.39  0.2    0.5   0    0.51 ME3      0.431    0.490    0.364
45  0.37  0.36  0.56  0.18   0.5   0    0.48 VAC      0.548    0.526    0.465
46  0.53  0.31  0.58  0.39   0.5   0    0.47 NUC      0.452    0.456    0.529
47  0.74  0.75  0.58  0.47   0.5   0    0.4  ME2      0.722    0.603    0.415
48  0.49  0.39  0.52  0.29   0.5   0    0.48 EXC      0.735    0.717    0.493
49  0.74  0.57  0.51  0.28   0.5   0    0.58 VAC      0.548    0.526    0.465
50  0.42  0.24  0.34  0.16   0.5   0    0.5  ME3      0.431    0.490    0.364
# ℹ 1,434 more rows
# ℹ 4 more variables: mean_mit <dbl>, mean_erl <dbl>, mean_pox <dbl>,
#   mean_vac <dbl>

Task 3: Combining Excel and Delimited Data

library(readxl)
# read in white wine dataset
white_wine <- read_excel("white-wine.xlsx")
white_wine

# A tibble: 4,898 × 12
   `fixed acidity` `volatile acidity` `citric acid` `residual sugar` chlorides
             <dbl>              <dbl>         <dbl>            <dbl>     <dbl>
 1               7               0.27          0.36             20.7     0.045
 2              63               0.3           0.34              1.6     0.049
 3              81               0.28          0.4               6.9     0.05 
 4              72               0.23          0.32              8.5     0.058
 5              72               0.23          0.32              8.5     0.058
 6              81               0.28          0.4               6.9     0.05 
 7              62               0.32          0.16              7       0.045
 8               7               0.27          0.36             20.7     0.045
 9              63               0.3           0.34              1.6     0.049
10              81               0.22          0.43              1.5     0.044
# ℹ 4,888 more rows
# ℹ 7 more variables: `free sulfur dioxide` <dbl>,
#   `total sulfur dioxide` <dbl>, density <dbl>, pH <dbl>, sulphates <dbl>,
#   alcohol <dbl>, quality <dbl>
…
# combine two datasets
wine <- bind_rows(white_wine, red_wine)

# filter, select and add new stats columns
wine |>
  filter(quality > 6.5 | alcohol < 132) |>
  arrange(desc(quality)) |>
  group_by(quality) |>
  mutate(alcohol_mean = mean(alcohol), alcohol_std = sd(alcohol)) |>
  print(n=50)

# A tibble: 6,404 × 15
# Groups:   quality [7]
   fixed_acidity volatile_acidity citric_acid residual_sugar chlorides
           <dbl>            <dbl>       <dbl>          <dbl>     <dbl>
 1            91             0.27        0.45          10.6      0.035
 2            66             0.36        0.29           1.6      0.021
 3            74             0.24        0.36           2        0.031
 4            69             0.36        0.34           4.2      0.018
 5            71             0.26        0.49           2.2      0.032
 6            62             0.66        0.48           1.2      0.029
 7            62             0.66        0.48           1.2      0.029
 8            68             0.26        0.42           1.7      0.049
 9            67             0.23        0.31           2.1      0.046
10            67             0.23        0.31           2.1      0.046
11            52             0.44        0.04           1.4      0.036
12            52             0.44        0.04           1.4      0.036
13            68             0.53        0.35           3.8      0.034
14            67             0.26        0.39           1.1      0.04 
15             7             0.24        0.36           2.8      0.034
16            61             0.31        0.58           5        0.039
17             5             0.55        0.14           8.3      0.032
18            64             0.32        0.35           4.8      0.03 
19             7             0.23        0.36           7.1      0.028
20            66             0.16        0.32           1.4      0.035
21             6             0.25        0.28           2.2      0.026
22            59             0.27        0.29          11.4      0.036
23            65             0.36        0.28           3.2      0.037
24            62             0.24        0.29          13.3      0.039
25            71             0.32        0.34          14.5      0.039
26            66             0.33        0.31           1.3      0.02 
27            81             0.17        0.44          14.1      0.053
28            81             0.17        0.44          14.1      0.053
29             6             0.18        0.31           1.4      0.036
30            73             0.3         0.34           2.7      0.044
31            75             0.42        0.34           4.3      0.04 
32            73             0.25        0.36           2.1      0.034
33            73             0.25        0.36           2.1      0.034
34            73             0.25        0.36           2.1      0.034
35            73             0.21        0.29           1.6      0.034
36            73             0.21        0.29           1.6      0.034
37            81             0.27        0.35           1.7      0.03 
38            78             0.18        0.46          12.6      0.042
39            69             0.12        0.36           2.2      0.037
40            69             0.21        0.28           2.4      0.056
41            71             0.25        0.39           2.1      0.036
42            79             0.28        0.41           2        0.044
43            68             0.19        0.32           7.05     0.019
44            52             0.24        0.45           3.8      0.027
45             7             0.24        0.32           1.3      0.037
46            53             0.24        0.33           1.3      0.033
47            52             0.24        0.45           3.8      0.027
48             7             0.15        0.38           2.2      0.047
49             6             0.26        0.42           5.2      0.027
50            61             0.31        0.37           8.4      0.031
# ℹ 6,354 more rows
# ℹ 10 more variables: free_sulfur_dioxide <dbl>, total_sulfur_dioxide <dbl>,
#   density <dbl>, pH <dbl>, sulphates <dbl>, alcohol <dbl>, quality <dbl>,
#   type <chr>, alcohol_mean <dbl>, alcohol_std <dbl>
…
# return hall of frame
tbl(con, 'HallOfFame') |>
  filter(inducted == "Y") |>
  select(playerID, yearID, category) |>
  collect()

# A tibble: 340 × 3
   playerID  yearID category         
   <chr>      <int> <chr>            
 1 cobbty01    1936 Player           
 2 ruthba01    1936 Player           
 3 wagneho01   1936 Player           
 4 mathech01   1936 Player           
 5 johnswa01   1936 Player           
 6 lajoina01   1937 Player           
 7 speaktr01   1937 Player           
 8 youngcy01   1937 Player           
 9 bulkemo99   1937 Pioneer/Executive
10 johnsba99   1937 Pioneer/Executive
# ℹ 330 more rows
…
# return Managers table
dat2 <- tbl(con, "Managers") |>
  select(playerID, G, W, L) |>
  group_by(playerID) |>
  summarize(G_managed = sum(G, na.rm = TRUE),
            Total_W = sum(W, na.rm = TRUE),
            Total_L = sum(L, na.rm = TRUE)) |>
  collect() |>
  mutate(win_percent = Total_W/G_managed) |>
  arrange(desc(Total_W/G_managed))

# join dat1 and dat2
inner_join(dat1, dat2, by = join_by(playerID == playerID))

# A tibble: 97 × 9
   playerID  yearID category        nameFirst nameLast G_managed Total_W Total_L
   <chr>      <int> <chr>           <chr>     <chr>        <int>   <int>   <int>
 1 cobbty01    1936 Player          Ty        Cobb           933     479     444
 2 wagneho01   1936 Player          Honus     Wagner           5       1       4
 3 mathech01   1936 Player          Christy   Mathews…       346     164     176
 4 johnswa01   1936 Player          Walter    Johnson        966     529     432
 5 lajoina01   1937 Player          Nap       Lajoie         700     377     309
 6 speaktr01   1937 Player          Tris      Speaker       1139     617     520
 7 youngcy01   1937 Player          Cy        Young            6       3       3
 8 mackco01    1937 Manager         Connie    Mack          7755    3731    3948
 9 mcgrajo01   1937 Manager         John      McGraw        4769    2763    1948
10 wrighge01   1937 Pioneer/Execut… George    Wright          85      59      25
# ℹ 87 more rows
# ℹ 1 more variable: win_percent <dbl>
